<?xml version="1.0" encoding="iso-8859-1"?>
<!-- Generator: Adobe Illustrator 19.0.0, SVG Export Plug-In . SVG Version: 6.00 Build 0)  -->
<svg version="1.1" id="Layer_1" xmlns="http://www.w3.org/2000/svg" xmlns:xlink="http://www.w3.org/1999/xlink" x="0px" y="0px"
	 viewBox="0 0 503.322 503.322" style="enable-background:new 0 0 503.322 503.322;" xml:space="preserve">
<path style="fill:#546080;" d="M295.051,34.712V17.356C295.051,7.81,287.241,0,277.695,0h-52.068
	c-9.546,0-17.356,7.81-17.356,17.356v17.356h-34.712c-5.207,0-8.678,3.471-8.678,8.678v60.746c0,5.207,3.471,8.678,8.678,8.678
	h156.203c5.207,0,8.678-3.471,8.678-8.678V43.39c0-5.207-3.471-8.678-8.678-8.678H295.051z"/>
<path style="fill:#EFEADD;" d="M338.441,60.746v43.39c0,5.207-3.471,8.678-8.678,8.678H173.559c-5.207,0-8.678-4.339-8.678-8.678
	v-43.39h-52.068c-19.092,0-34.712,15.62-34.712,34.712V468.61c0,19.092,15.62,34.712,34.712,34.712h277.695
	c19.092,0,34.712-15.62,34.712-34.712V95.458c0-19.092-15.62-34.712-34.712-34.712H338.441z"/>
<path style="fill:#556080;" d="M355.797,302.861l-12.149-2.603c-18.224-3.471-26.902-25.166-15.62-40.786l7.81-10.414
	l-17.356-17.356l-10.414,6.942c-15.62,10.414-37.315,0.868-39.919-17.356l-2.603-13.017h-24.298l-3.471,16.488
	c-3.471,18.224-24.298,26.902-39.919,16.488l-13.885-9.546l-17.356,17.356l7.81,10.414c11.281,15.62,2.603,37.315-15.62,40.786
	l-11.281,2.603v24.298l13.017,1.736c19.092,2.603,27.769,24.298,17.356,39.919l-6.942,10.414l17.356,17.356l10.414-7.81
	c15.62-11.281,37.315-2.603,40.786,15.62l2.603,12.149h24.298l1.736-9.546c2.603-19.092,25.166-28.637,40.786-16.488l7.81,5.207
	l17.356-17.356l-6.942-10.414c-10.414-15.62-0.868-37.315,17.356-39.919l13.017-1.736v-23.43H355.797z"/>
<path style="fill:#FFFFFF;" d="M286.373,312.407c0,19.092-15.62,34.712-34.712,34.712c-19.092,0-34.712-15.62-34.712-34.712
	c0-19.092,15.62-34.712,34.712-34.712C270.753,277.695,286.373,293.315,286.373,312.407"/>
<path style="fill:#EDF1F1;" d="M251.661,355.797c-24.298,0-43.39-19.092-43.39-43.39c0-24.298,19.092-43.39,43.39-43.39
	s43.39,19.092,43.39,43.39C295.051,336.705,275.959,355.797,251.661,355.797z M251.661,286.373
	c-14.753,0-26.034,11.281-26.034,26.034c0,14.753,11.281,26.034,26.034,26.034c14.753,0,26.034-11.281,26.034-26.034
	C277.695,297.654,266.414,286.373,251.661,286.373z"/>
<g>
</g>
<g>
</g>
<g>
</g>
<g>
</g>
<g>
</g>
<g>
</g>
<g>
</g>
<g>
</g>
<g>
</g>
<g>
</g>
<g>
</g>
<g>
</g>
<g>
</g>
<g>
</g>
<g>
</g>
</svg>
