<?xml version="1.0" encoding="utf-8"?>
<!-- Generator: Adobe Illustrator 16.0.0, SVG Export Plug-In . SVG Version: 6.00 Build 0)  -->
<!DOCTYPE svg PUBLIC "-//W3C//DTD SVG 1.1//EN" "http://www.w3.org/Graphics/SVG/1.1/DTD/svg11.dtd">
<svg version="1.1" id="Layer_1" xmlns="http://www.w3.org/2000/svg" xmlns:xlink="http://www.w3.org/1999/xlink" x="0px" y="0px"
	 width="355px" height="355px" viewBox="0 0 355 355" enable-background="new 0 0 355 355" xml:space="preserve">
<g>
	<g>
		<circle fill="#FF7443" cx="68.868" cy="107.875" r="32.083"/>
		<path fill="#41464B" d="M74.876,170.353H62.887l-2.71-13.466c-2.8-0.494-5.579-1.241-8.289-2.228l-9.046,10.305l-10.383-5.982
			l4.395-13.014c-2.192-1.843-4.23-3.882-6.081-6.082l-13.002,4.387l-5.976-10.352l10.28-9.077c-0.983-2.705-1.73-5.478-2.226-8.268
			l-13.425-2.689l-0.022-12.024l13.447-2.706c0.495-2.789,1.24-5.558,2.223-8.26l-10.277-9.095l5.977-10.328l13,4.372
			c1.846-2.194,3.883-4.232,6.08-6.083l-4.393-13.021l10.383-5.972l9.055,10.297c2.71-0.984,5.486-1.73,8.282-2.225l2.709-13.446
			h11.988l2.708,13.45c2.79,0.495,5.563,1.241,8.27,2.225l9.051-10.302l10.385,5.973l-4.391,13.01
			c2.205,1.853,4.25,3.894,6.098,6.089l12.993-4.367l5.972,10.328l-10.256,9.073c0.985,2.711,1.734,5.491,2.233,8.293l13.396,2.693
			v12.025l-13.396,2.677c-0.499,2.801-1.249,5.583-2.238,8.3l10.26,9.056l-5.97,10.353l-12.995-4.382
			c-1.853,2.2-3.896,4.24-6.099,6.087l4.393,13.002l-10.364,5.983l-9.064-10.309c-2.708,0.986-5.482,1.732-8.276,2.227
			L74.876,170.353z M65.672,166.951h6.416l2.627-13.062l1.178-0.178c3.331-0.503,6.644-1.394,9.848-2.647l1.111-0.434l8.787,9.994
			l5.533-3.196l-4.259-12.605l0.932-0.743c2.673-2.134,5.114-4.571,7.254-7.24l0.744-0.927l12.591,4.247l3.188-5.527l-9.947-8.779
			l0.433-1.107c1.256-3.214,2.151-6.536,2.66-9.874l0.18-1.178l12.982-2.594v-6.448l-12.982-2.611l-0.18-1.177
			c-0.509-3.341-1.402-6.659-2.655-9.865l-0.432-1.106l9.94-8.793l-3.186-5.513l-12.593,4.234l-0.743-0.927
			c-2.134-2.663-4.575-5.1-7.252-7.241l-0.93-0.744l4.255-12.608l-5.55-3.191l-8.775,9.989l-1.111-0.434
			c-3.205-1.251-6.517-2.141-9.844-2.646l-1.178-0.18L72.089,48.8h-6.417l-2.626,13.035l-1.178,0.179
			c-3.333,0.503-6.648,1.394-9.854,2.646l-1.11,0.434l-8.78-9.986l-5.548,3.192l4.255,12.616l-0.928,0.744
			c-2.667,2.14-5.101,4.574-7.234,7.238l-0.743,0.927l-12.604-4.238l-3.189,5.512l9.96,8.816l-0.432,1.106
			c-1.249,3.197-2.138,6.503-2.642,9.829l-0.179,1.177L9.81,104.649l0.011,6.449l13.019,2.606l0.18,1.179
			c0.505,3.328,1.396,6.637,2.646,9.84l0.433,1.107l-9.965,8.799l3.19,5.528l12.602-4.253l0.744,0.929
			c2.142,2.673,4.577,5.108,7.236,7.236l0.93,0.745l-4.259,12.612l5.548,3.197l8.772-9.992l1.111,0.435
			c3.205,1.255,6.521,2.146,9.859,2.648l1.179,0.178L65.672,166.951z"/>
		<g>
			<polygon fill="#FFFFFF" points="58.693,117.37 49.198,107.876 58.693,98.378 61.099,100.784 54.01,107.876 61.099,114.964 			"/>
			<polygon fill="#FFFFFF" points="79.046,117.37 76.64,114.964 83.729,107.876 76.64,100.786 79.046,98.38 88.54,107.876 			"/>
			
				<rect x="67.168" y="93.56" transform="matrix(0.9848 0.1736 -0.1736 0.9848 19.7734 -10.318)" fill="#FFFFFF" width="3.403" height="28.63"/>
		</g>
		<g>
			<rect x="67.167" y="67.285" fill="#41464B" width="3.403" height="3.403"/>
			<rect x="67.167" y="145.062" fill="#41464B" width="3.403" height="3.403"/>
			<rect x="28.279" y="106.173" fill="#41464B" width="3.403" height="3.403"/>
			<rect x="106.056" y="106.173" fill="#41464B" width="3.402" height="3.403"/>
		</g>
	</g>
	<g>
		<g>
			<path fill="#FFFFFF" d="M238.23,134.417c-1.239-1.223-2.844-1.851-4.464-1.851H57.688c-1.608,0-3.237,0.628-4.453,1.851
				c-1.238,1.234-1.85,2.839-1.85,4.441v108.727h188.681V138.858C240.067,137.255,239.444,135.651,238.23,134.417z"/>
			<path fill="#41464B" d="M241.769,247.585h-3.403V138.858c0-1.21-0.479-2.364-1.348-3.249c-0.872-0.859-2.033-1.342-3.251-1.342
				H57.688c-1.21,0-2.394,0.492-3.246,1.349c-0.875,0.874-1.354,2.022-1.354,3.242v108.727h-3.403V138.858
				c0-2.13,0.834-4.136,2.35-5.646c1.48-1.491,3.543-2.348,5.654-2.348h176.078c2.118,0,4.128,0.832,5.658,2.341
				c1.519,1.544,2.344,3.544,2.344,5.653V247.585z"/>
			<path fill="#41464B" d="M250.854,266.069H40.616c-2.686,0-5.222-1.048-7.141-2.948c-1.908-1.904-2.956-4.439-2.956-7.144v-10.101
				h88.021l4.432,4.871h45.523l4.432-4.871h88.017v10.101c0,2.719-1.052,5.256-2.962,7.146
				C256.069,265.021,253.537,266.069,250.854,266.069z M33.923,249.28v6.697c0,1.794,0.693,3.475,1.952,4.731
				c1.273,1.261,2.958,1.958,4.742,1.958h210.238c1.778,0,3.46-0.697,4.732-1.962c1.262-1.247,1.955-2.926,1.955-4.728v-6.697
				h-83.11L170,254.15h-48.531l-4.432-4.87H33.923z"/>
			<g>
				<rect x="49.685" y="254.274" fill="#41464B" width="3.403" height="3.402"/>
				<rect x="56.49" y="254.274" fill="#41464B" width="3.403" height="3.402"/>
				<rect x="63.296" y="254.274" fill="#41464B" width="3.403" height="3.402"/>
			</g>
			<rect x="224.755" y="254.274" fill="#41464B" width="17.014" height="3.402"/>
			<rect x="62.746" y="143.926" fill="#4CBED8" width="165.978" height="92.313"/>
		</g>
		<g>
			<g>
				<path fill="#FFFFFF" d="M144.217,203.941h-3.402v-27.719h11.832c2.072,0,4.023,0.812,5.495,2.284
					c1.468,1.471,2.277,3.425,2.277,5.502c0,2.072-0.809,4.022-2.277,5.494c-1.473,1.472-3.424,2.282-5.495,2.282h-8.429V203.941z
					 M144.217,188.382h8.429c1.162,0,2.26-0.457,3.088-1.285c0.826-0.826,1.281-1.924,1.281-3.088c0-1.169-0.455-2.269-1.282-3.097
					c-0.829-0.83-1.925-1.287-3.087-1.287h-8.429V188.382z"/>
				<g>
					<path fill="#FFFFFF" d="M132.868,203.941h-3.403v-19.933c0-1.171-0.454-2.271-1.279-3.097
						c-0.832-0.828-1.933-1.287-3.098-1.287h-4.055c-1.165,0-2.262,0.457-3.088,1.287c-0.828,0.826-1.283,1.926-1.283,3.097v19.933
						h-3.403v-19.933c0-2.081,0.809-4.034,2.278-5.502c1.469-1.473,3.421-2.284,5.496-2.284h4.055c2.071,0,4.026,0.811,5.503,2.282
						c1.469,1.472,2.277,3.425,2.277,5.504V203.941z"/>
					<rect x="113.259" y="188.382" fill="#FFFFFF" width="19.608" height="3.403"/>
				</g>
				<g>
					<rect x="171.568" y="177.924" fill="#FFFFFF" width="3.403" height="24.316"/>
					<rect x="168.325" y="176.223" fill="#FFFFFF" width="9.885" height="3.402"/>
					<rect x="168.325" y="200.539" fill="#FFFFFF" width="9.885" height="3.402"/>
				</g>
			</g>
			<g>
				<rect x="187.475" y="188.382" fill="#41464B" width="3.402" height="3.403"/>
				<rect x="100.589" y="188.382" fill="#41464B" width="3.402" height="3.403"/>
			</g>
		</g>
	</g>
	<g>
		<rect x="204.876" y="144.718" fill="#FFFFFF" width="147.775" height="148.75"/>
		<g>
			<path fill="#41464B" d="M354.353,295.17h-112.29V143.017h112.29V295.17z M245.466,291.767H350.95V146.419H245.466V291.767z"/>
			<rect x="204.876" y="120.413" fill="#AFAFAF" width="147.775" height="24.305"/>
			<path fill="#41464B" d="M354.353,146.419H203.174v-27.708h151.179V146.419z M206.577,143.017H350.95v-20.902H206.577V143.017z"/>
			<path fill="#41464B" d="M245.466,295.17h-42.292V143.017h42.292V295.17z M206.577,291.767h35.485V146.419h-35.485V291.767z"/>
			<g>
				<rect x="204.876" y="217.393" fill="#41464B" width="38.888" height="3.403"/>
			</g>
			<g>
				<rect x="212.896" y="130.864" fill="#41464B" width="3.402" height="3.403"/>
				<rect x="219.701" y="130.864" fill="#41464B" width="3.403" height="3.403"/>
				<rect x="226.507" y="130.864" fill="#41464B" width="3.403" height="3.403"/>
				<rect x="233.313" y="130.864" fill="#41464B" width="111.318" height="3.403"/>
			</g>
		</g>
		<g>
			<g>
				<rect x="212.896" y="159.544" fill="#41464B" width="3.402" height="3.403"/>
				<rect x="219.702" y="159.544" fill="#41464B" width="16.041" height="3.403"/>
			</g>
			<g>
				<rect x="212.896" y="152.739" fill="#41464B" width="3.402" height="3.402"/>
				<rect x="219.702" y="152.739" fill="#41464B" width="16.041" height="3.402"/>
			</g>
			<g>
				<rect x="212.896" y="166.35" fill="#41464B" width="3.402" height="3.403"/>
				<rect x="219.702" y="166.35" fill="#41464B" width="16.041" height="3.403"/>
			</g>
			<g>
				<rect x="212.896" y="173.155" fill="#41464B" width="3.402" height="3.403"/>
				<rect x="219.702" y="173.155" fill="#41464B" width="16.041" height="3.403"/>
			</g>
			<g>
				<rect x="212.896" y="179.961" fill="#41464B" width="3.402" height="3.402"/>
				<rect x="219.702" y="179.961" fill="#41464B" width="16.041" height="3.402"/>
			</g>
			<g>
				<rect x="212.896" y="203.782" fill="#41464B" width="3.402" height="3.402"/>
				<rect x="219.702" y="203.782" fill="#41464B" width="16.041" height="3.402"/>
			</g>
			<g>
				<rect x="212.896" y="210.587" fill="#41464B" width="3.402" height="3.403"/>
				<rect x="219.702" y="210.587" fill="#41464B" width="16.041" height="3.403"/>
			</g>
			<g>
				<rect x="212.896" y="248.018" fill="#41464B" width="3.402" height="3.402"/>
				<rect x="219.702" y="248.018" fill="#41464B" width="16.041" height="3.402"/>
			</g>
			<g>
				<rect x="212.896" y="254.823" fill="#41464B" width="3.402" height="3.402"/>
				<rect x="219.702" y="254.823" fill="#41464B" width="16.041" height="3.402"/>
			</g>
			<g>
				<rect x="212.896" y="261.628" fill="#41464B" width="3.402" height="3.403"/>
				<rect x="219.702" y="261.628" fill="#41464B" width="16.041" height="3.403"/>
			</g>
			<g>
				<rect x="212.896" y="268.434" fill="#41464B" width="3.402" height="3.403"/>
				<rect x="219.702" y="268.434" fill="#41464B" width="16.041" height="3.403"/>
			</g>
			<g>
				<rect x="212.896" y="275.239" fill="#41464B" width="3.402" height="3.402"/>
				<rect x="219.702" y="275.239" fill="#41464B" width="16.041" height="3.402"/>
			</g>
			<g>
				<rect x="212.896" y="282.045" fill="#41464B" width="3.402" height="3.402"/>
				<rect x="219.702" y="282.045" fill="#41464B" width="16.041" height="3.402"/>
			</g>
		</g>
		<g>
			<path fill="#41464B" d="M344.631,203.782h-78.263v-23.821h78.263V203.782z M269.771,200.379h71.457v-17.016h-71.457V200.379z"/>
			<g>
				<path fill="#41464B" d="M344.631,258.226h-78.263v-23.819h78.263V258.226z M269.771,254.823h71.457V237.81h-71.457V254.823z"/>
				<rect x="273.173" y="241.212" fill="#FF7443" width="64.652" height="10.208"/>
			</g>
			<path fill="#41464B" d="M317.409,231.004h-51.041v-23.819h51.041V231.004z M269.771,227.601h44.235v-17.014h-44.235V227.601z"/>
			<g>
				<path fill="#41464B" d="M290.187,176.558h-23.818v-23.819h23.818V176.558z M269.771,173.155h17.014v-17.014h-17.014V173.155z"/>
				<path fill="#41464B" d="M317.409,176.558H293.59v-23.819h23.819V176.558z M296.992,173.155h17.014v-17.014h-17.014V173.155z"/>
				<path fill="#41464B" d="M344.631,176.558h-23.819v-23.819h23.819V176.558z M324.214,173.155h17.014v-17.014h-17.014V173.155z"/>
				<rect x="327.617" y="159.544" fill="#4CBED8" width="10.208" height="10.208"/>
			</g>
			<g>
				<path fill="#41464B" d="M344.631,285.447h-23.819v-23.819h23.819V285.447z M324.214,282.045h17.014v-17.014h-17.014V282.045z"/>
				
					<rect x="318.284" y="271.836" transform="matrix(0.7071 0.7071 -0.7071 0.7071 290.8717 -155.1522)" fill="#41464B" width="28.874" height="3.402"/>
			</g>
			<g>
				<polygon fill="#41464B" points="268.069,248.018 251.785,248.018 251.785,162.947 268.069,162.947 268.069,166.35 
					255.188,166.35 255.188,244.614 268.069,244.614 				"/>
				<rect x="253.486" y="190.169" fill="#41464B" width="14.583" height="3.403"/>
				<rect x="253.486" y="217.393" fill="#41464B" width="14.583" height="3.403"/>
			</g>
			<g>
				<rect x="327.617" y="217.393" fill="#41464B" width="3.402" height="3.403"/>
				<rect x="334.422" y="217.393" fill="#41464B" width="3.403" height="3.403"/>
				<rect x="341.228" y="217.393" fill="#41464B" width="3.403" height="3.403"/>
			</g>
			<g>
				<rect x="251.785" y="275.239" fill="#41464B" width="65.624" height="3.402"/>
				<rect x="251.785" y="282.045" fill="#41464B" width="65.624" height="3.402"/>
				<g>
					<rect x="251.785" y="268.434" fill="#41464B" width="9.503" height="3.403"/>
					<rect x="264.691" y="268.434" fill="#41464B" width="9.502" height="3.403"/>
					<rect x="277.596" y="268.434" fill="#41464B" width="9.504" height="3.403"/>
				</g>
			</g>
		</g>
	</g>
	<g>
		<g>
			<rect x="213.788" y="308.587" fill="#41464B" width="63.909" height="3.402"/>
			<rect x="290.638" y="308.587" fill="#41464B" width="22.08" height="3.402"/>
			<path fill="#41464B" d="M281.783,316.076c-3.19,0-5.787-2.596-5.787-5.788c0-3.19,2.597-5.788,5.787-5.788
				c3.192,0,5.79,2.598,5.79,5.788C287.573,313.48,284.976,316.076,281.783,316.076z M281.783,307.903
				c-1.314,0-2.385,1.071-2.385,2.385c0,1.316,1.07,2.385,2.385,2.385c1.316,0,2.388-1.068,2.388-2.385
				C284.171,308.975,283.1,307.903,281.783,307.903z"/>
		</g>
		<g>
			<rect x="213.788" y="318.805" fill="#41464B" width="48.472" height="3.402"/>
			<rect x="275.2" y="318.805" fill="#41464B" width="37.518" height="3.402"/>
			<path fill="#41464B" d="M266.346,326.294c-3.19,0-5.787-2.598-5.787-5.788c0-3.192,2.597-5.788,5.787-5.788
				c3.191,0,5.788,2.596,5.788,5.788C272.134,323.696,269.537,326.294,266.346,326.294z M266.346,318.121
				c-1.314,0-2.385,1.068-2.385,2.385c0,1.314,1.07,2.385,2.385,2.385c1.315,0,2.385-1.07,2.385-2.385
				C268.73,319.189,267.661,318.121,266.346,318.121z"/>
		</g>
		<g>
			<rect x="213.788" y="329.021" fill="#41464B" width="15.458" height="3.402"/>
			<rect x="242.187" y="329.021" fill="#41464B" width="70.531" height="3.402"/>
			<path fill="#41464B" d="M233.333,336.51c-3.191,0-5.788-2.596-5.788-5.788s2.597-5.788,5.788-5.788s5.789,2.596,5.789,5.788
				S236.524,336.51,233.333,336.51z M233.333,328.337c-1.315,0-2.386,1.068-2.386,2.385c0,1.315,1.07,2.385,2.386,2.385
				s2.387-1.069,2.387-2.385C235.72,329.405,234.648,328.337,233.333,328.337z"/>
		</g>
		<g>
			<rect x="213.788" y="339.238" fill="#41464B" width="70.721" height="3.402"/>
			<rect x="297.451" y="339.238" fill="#41464B" width="15.267" height="3.402"/>
			<path fill="#41464B" d="M288.595,346.727c-3.191,0-5.788-2.598-5.788-5.787c0-3.192,2.597-5.79,5.788-5.79
				c3.192,0,5.79,2.598,5.79,5.79C294.385,344.129,291.787,346.727,288.595,346.727z M288.595,338.553
				c-1.314,0-2.385,1.07-2.385,2.387c0,1.313,1.07,2.385,2.385,2.385c1.316,0,2.387-1.071,2.387-2.385
				C290.981,339.623,289.911,338.553,288.595,338.553z"/>
		</g>
	</g>
	<g>
		<path fill="#FED65C" d="M155.547,335.913c0,2.674-2.188,4.861-4.861,4.861h-38.989c-2.673,0-4.861-2.188-4.861-4.861v-38.989
			c0-2.674,2.188-4.86,4.861-4.86h38.989c2.673,0,4.861,2.187,4.861,4.86V335.913z"/>
		<g>
			<rect x="139.697" y="324.925" fill="#41464B" width="3.403" height="3.402"/>
			<path fill="#41464B" d="M136.294,328.327h-3.402v-3.402h3.402V328.327z M129.489,328.327h-3.403v-3.402h3.403V328.327z"/>
			<rect x="119.28" y="324.925" fill="#41464B" width="3.403" height="3.402"/>
			<path fill="#41464B" d="M122.683,321.521h-3.403v-3.402h3.403V321.521z M122.683,314.716h-3.403v-3.4h3.403V314.716z"/>
			<rect x="119.28" y="304.51" fill="#41464B" width="3.403" height="3.403"/>
			<path fill="#41464B" d="M136.294,307.913h-3.402v-3.403h3.402V307.913z M129.489,307.913h-3.403v-3.403h3.403V307.913z"/>
			<rect x="139.697" y="304.51" fill="#41464B" width="3.403" height="3.403"/>
			<path fill="#41464B" d="M143.1,321.521h-3.403v-3.4h3.403V321.521z M143.1,314.718h-3.403v-3.402h3.403V314.718z"/>
		</g>
		<g>
			<rect x="161.875" y="277.837" fill="#41464B" width="17.013" height="3.402"/>
			<polygon fill="#41464B" points="150.554,299.467 148.147,297.061 161.17,284.035 178.888,284.035 178.888,287.438 
				162.579,287.438 			"/>
		</g>
		<g>
			<rect x="83.496" y="351.598" fill="#41464B" width="17.014" height="3.402"/>
			<polygon fill="#41464B" points="101.214,348.803 83.496,348.803 83.496,345.399 99.805,345.399 111.831,333.368 114.236,335.774 
							"/>
		</g>
		<g>
			<polygon fill="#41464B" points="178.888,348.803 161.17,348.803 148.147,335.774 150.554,333.368 162.579,345.399 
				178.888,345.399 			"/>
			<g>
				<rect x="161.875" y="351.598" fill="#41464B" width="3.402" height="3.402"/>
				<rect x="168.677" y="351.598" fill="#41464B" width="3.407" height="3.402"/>
				<rect x="175.481" y="351.598" fill="#41464B" width="3.406" height="3.402"/>
			</g>
		</g>
		<g>
			<polygon fill="#41464B" points="111.831,299.467 99.805,287.438 83.496,287.438 83.496,284.035 101.214,284.035 114.236,297.061 
							"/>
			<g>
				<rect x="83.496" y="277.837" fill="#41464B" width="3.407" height="3.402"/>
				<rect x="90.297" y="277.837" fill="#41464B" width="3.409" height="3.402"/>
				<rect x="97.11" y="277.837" fill="#41464B" width="3.399" height="3.402"/>
			</g>
		</g>
	</g>
	<g>
		<g>
			<path fill="#41464B" d="M40.665,310.634h-1.702v-3.402h1.702c0.771,0,1.495-0.301,2.039-0.846
				c0.547-0.547,0.847-1.272,0.847-2.041v-18.349c0-0.771-0.3-1.496-0.846-2.043c-0.544-0.543-1.269-0.843-2.04-0.843h-1.702v-3.403
				h1.702c1.68,0,3.259,0.653,4.446,1.84c1.188,1.189,1.843,2.769,1.843,4.449v18.349c0,1.679-0.654,3.259-1.843,4.445
				C43.926,309.979,42.346,310.634,40.665,310.634z"/>
			<path fill="#41464B" d="M17.595,310.634h-1.701c-1.681,0-3.26-0.655-4.448-1.844c-1.188-1.188-1.841-2.769-1.841-4.445v-18.349
				c0-1.679,0.653-3.258,1.84-4.447c1.191-1.188,2.771-1.842,4.449-1.842h1.701v3.403h-1.701c-0.771,0-1.497,0.3-2.043,0.845
				c-0.543,0.543-0.843,1.271-0.843,2.041v18.349c0,0.769,0.3,1.494,0.845,2.041c0.545,0.545,1.271,0.846,2.042,0.846h1.701V310.634
				z"/>
		</g>
		<g>
			<rect x="19.994" y="293.47" fill="#41464B" width="3.405" height="3.403"/>
			<rect x="26.119" y="293.47" fill="#41464B" width="3.403" height="3.403"/>
			<rect x="32.243" y="293.47" fill="#41464B" width="3.405" height="3.403"/>
		</g>
	</g>
	<g>
		<g>
			<g>
				<rect x="148.523" y="57.813" fill="#41464B" width="10.316" height="3.403"/>
				<rect x="158.84" y="71.425" fill="#41464B" width="10.1" height="3.403"/>
				<rect x="158.84" y="78.225" fill="#41464B" width="10.1" height="3.403"/>
				<rect x="148.523" y="64.612" fill="#41464B" width="20.417" height="3.403"/>
				<rect x="158.84" y="44.198" fill="#41464B" width="10.1" height="3.403"/>
				<rect x="158.84" y="51.006" fill="#41464B" width="10.1" height="3.403"/>
				<rect x="148.523" y="37.392" fill="#41464B" width="20.417" height="3.403"/>
			</g>
			<g>
				<rect x="204.317" y="57.805" fill="#41464B" width="10.316" height="3.403"/>
				<rect x="194.218" y="44.19" fill="#41464B" width="10.1" height="3.403"/>
				<rect x="194.218" y="37.392" fill="#41464B" width="10.1" height="3.403"/>
				<rect x="194.218" y="51.006" fill="#41464B" width="20.416" height="3.403"/>
				<rect x="194.218" y="71.418" fill="#41464B" width="10.1" height="3.403"/>
				<rect x="194.218" y="64.612" fill="#41464B" width="10.1" height="3.403"/>
				<rect x="194.218" y="78.225" fill="#41464B" width="20.416" height="3.403"/>
			</g>
			<g>
				<path fill="#41464B" d="M227.428,61.211c-1.811,0-3.521-0.708-4.816-1.992c-1.296-1.295-2.007-3.009-2.007-4.832V33.035
					c0-0.914-0.355-1.773-1.001-2.42c-0.642-0.646-1.5-1-2.419-1h-2.551v-3.403h2.551c1.834,0,3.548,0.711,4.83,2.002
					c1.283,1.286,1.993,2.999,1.993,4.82v21.353c0,0.914,0.356,1.773,1.004,2.419c0.649,0.645,1.509,1.001,2.416,1.001V61.211z"/>
				<path fill="#41464B" d="M217.185,92.808h-2.551v-3.403h2.551c0.919,0,1.776-0.354,2.415-0.997
					c0.649-0.651,1.005-1.512,1.005-2.424V64.632c0-1.823,0.711-3.537,2.002-4.827c1.301-1.289,3.011-1.997,4.821-1.997v3.403
					c-0.907,0-1.767,0.357-2.421,1.006c-0.643,0.642-0.999,1.501-0.999,2.415v21.353c0,1.82-0.71,3.533-1.996,4.823
					C220.732,92.097,219.018,92.808,217.185,92.808z"/>
			</g>
			<g>
				<path fill="#41464B" d="M135.728,61.211v-3.403c0.908,0,1.766-0.356,2.413-1.001c0.649-0.647,1.006-1.506,1.006-2.419V33.035
					c0-1.82,0.708-3.533,1.993-4.823c1.286-1.29,3.001-2,4.83-2h2.554v3.403h-2.554c-0.917,0-1.776,0.355-2.419,0.999
					c-0.645,0.647-1.001,1.508-1.001,2.421v21.353c0,1.825-0.713,3.54-2.006,4.829C139.254,60.502,137.543,61.211,135.728,61.211z"
					/>
				<path fill="#41464B" d="M148.523,92.808h-2.554c-1.828,0-3.542-0.71-4.829-2c-1.287-1.292-1.994-3.005-1.994-4.823V64.632
					c0-0.914-0.357-1.772-1.005-2.417c-0.648-0.647-1.506-1.003-2.414-1.003v-3.403c1.816,0,3.527,0.709,4.817,1.997
					c1.292,1.288,2.005,3.002,2.005,4.827v21.353c0,0.912,0.356,1.772,1.001,2.422c0.642,0.644,1.501,0.999,2.418,0.999h2.554
					V92.808z"/>
			</g>
		</g>
		<g>
			<polygon fill="#FF7443" points="174.773,15.192 174.771,95.2 188.381,95.2 188.382,15.192 181.577,21.996 			"/>
			<path fill="#AFAFAF" d="M185.466,115.616c0.746,0,1.492-0.285,2.062-0.854c0.57-0.57,0.854-1.316,0.854-2.062v-3.889h-13.61
				v3.889c0,0.746,0.285,1.492,0.854,2.062c0.569,0.57,1.316,0.854,2.062,0.854H185.466z"/>
			<g>
				<rect x="179.875" y="21.996" fill="#41464B" width="3.403" height="73.204"/>
				<polygon fill="#41464B" points="186.909,16.042 181.577,6.808 176.247,16.042 173.3,14.341 181.577,0 189.855,14.341 				"/>
				<path fill="#41464B" d="M176.473,95.2h-3.403l0.002-80.008c0-0.688,0.415-1.308,1.05-1.572c0.636-0.26,1.367-0.118,1.854,0.37
					l5.601,5.601l5.603-5.601c0.486-0.487,1.218-0.63,1.854-0.37c0.636,0.264,1.051,0.884,1.051,1.572L190.083,95.2h-3.403
					l0.001-75.901l-3.901,3.9c-0.664,0.665-1.741,0.665-2.405,0l-3.899-3.899L176.473,95.2z"/>
				<path fill="#41464B" d="M190.084,110.512H173.07V93.499h17.014V110.512z M176.473,107.109h10.208V96.901h-10.208V107.109z"/>
				<path fill="#41464B" d="M185.466,117.317h-7.778c-1.233,0-2.393-0.48-3.265-1.353c-0.873-0.873-1.353-2.032-1.353-3.265v-5.59
					h17.014v5.59c0,1.233-0.48,2.393-1.354,3.265C187.858,116.837,186.699,117.317,185.466,117.317z M176.473,110.512v2.188
					c0,0.325,0.126,0.629,0.356,0.859c0.23,0.23,0.535,0.356,0.859,0.356h7.778c0.324,0,0.629-0.126,0.859-0.356
					c0.229-0.229,0.355-0.534,0.355-0.859v-2.188H176.473z"/>
				<rect x="174.771" y="100.304" fill="#41464B" width="13.61" height="3.403"/>
			</g>
		</g>
	</g>
	<g>
		<rect x="242.199" y="58.079" fill="#FED65C" width="32.083" height="32.084"/>
		<path fill="#41464B" d="M293.696,109.577h-32.569v-32.57h32.569V109.577z M264.529,106.174h25.764V80.41h-25.764V106.174z"/>
	</g>
	<g>
		<path fill="#41464B" d="M314.445,75.306h-7.201l-2.077-5.441c-1.076-0.34-2.122-0.773-3.126-1.299l-5.323,2.372l-5.085-5.083
			l2.375-5.321c-0.523-1.001-0.958-2.048-1.298-3.128l-5.439-2.073v-7.207l5.44-2.075c0.34-1.076,0.773-2.122,1.298-3.127
			l-2.376-5.32l5.086-5.089l5.32,2.38c0.997-0.523,2.045-0.958,3.128-1.299l2.077-5.438h7.201l2.078,5.438
			c1.085,0.341,2.132,0.775,3.128,1.299l5.324-2.38l5.081,5.089l-2.372,5.32c0.522,1.004,0.957,2.051,1.297,3.127l5.441,2.076v7.206
			l-5.44,2.073c-0.34,1.082-0.775,2.128-1.297,3.128l2.371,5.32l-5.08,5.084l-5.327-2.372c-1.005,0.525-2.05,0.96-3.126,1.299
			L314.445,75.306z M309.588,71.903h2.515l1.856-4.857l0.842-0.223c1.365-0.361,2.681-0.908,3.912-1.625l0.752-0.438l4.758,2.118
			l1.774-1.774l-2.12-4.755l0.439-0.753c0.713-1.22,1.259-2.537,1.624-3.915l0.223-0.843l4.856-1.851v-2.518l-4.855-1.853
			l-0.224-0.841c-0.363-1.37-0.911-2.689-1.626-3.921l-0.437-0.753l2.119-4.749l-1.773-1.775l-4.761,2.129l-0.757-0.445
			c-1.208-0.71-2.522-1.256-3.904-1.623l-0.843-0.222l-1.856-4.856h-2.515l-1.855,4.855l-0.842,0.223
			c-1.382,0.365-2.696,0.912-3.908,1.624l-0.756,0.444l-4.758-2.129l-1.774,1.775l2.12,4.749l-0.437,0.753
			c-0.716,1.234-1.263,2.553-1.626,3.921l-0.225,0.841l-4.854,1.852v2.519l4.855,1.851l0.224,0.843
			c0.364,1.375,0.911,2.692,1.624,3.915l0.439,0.754l-2.121,4.753l1.775,1.775l4.754-2.118l0.753,0.438
			c1.231,0.716,2.548,1.263,3.914,1.625l0.843,0.223L309.588,71.903z"/>
		<path fill="#AFAFAF" d="M310.846,61.957c-5.649,0-10.229-4.579-10.229-10.228c0-5.644,4.579-10.231,10.229-10.231
			c5.646,0,10.228,4.587,10.228,10.231C321.073,57.377,316.492,61.957,310.846,61.957z"/>
	</g>
	<path fill="#41464B" d="M34.675,207.896c-3.618,0-6.562-2.947-6.562-6.571c0-3.618,2.944-6.561,6.562-6.561
		c3.619,0,6.563,2.942,6.563,6.561C41.238,204.949,38.294,207.896,34.675,207.896z M34.675,198.167c-1.742,0-3.16,1.417-3.16,3.158
		c0,1.748,1.417,3.169,3.16,3.169s3.16-1.421,3.16-3.169C37.835,199.584,36.417,198.167,34.675,198.167z"/>
	<path fill="#41464B" d="M13.608,191.842l-0.002-3.402c1.01,0,2.002-0.156,2.95-0.464l1.05,3.236
		C16.32,191.629,14.975,191.842,13.608,191.842z M9.609,191.216c-1.292-0.416-2.506-1.035-3.612-1.835l1.998-2.755
		c0.815,0.591,1.709,1.044,2.661,1.352L9.609,191.216z M21.216,189.373l-2.001-2.751c0.813-0.593,1.523-1.303,2.113-2.111
		l2.751,2.003C23.281,187.611,22.317,188.572,21.216,189.373z M3.13,186.523c-0.804-1.1-1.425-2.313-1.847-3.606l3.234-1.056
		c0.312,0.951,0.769,1.844,1.36,2.655L3.13,186.523z M25.923,182.906l-3.236-1.054c0.308-0.946,0.464-1.939,0.464-2.949l3.403-0.044
		v0.044C26.554,180.272,26.341,181.618,25.923,182.906z M0.647,178.917v-0.014c0-1.359,0.21-2.701,0.625-3.986l3.237,1.046
		c-0.306,0.947-0.46,1.936-0.46,2.94L0.647,178.917z M22.676,175.918c-0.313-0.949-0.772-1.841-1.366-2.653l2.744-2.011
		c0.807,1.1,1.431,2.313,1.854,3.602L22.676,175.918z M5.864,173.304l-2.755-1.998c0.799-1.1,1.759-2.064,2.857-2.867l2.007,2.748
		C7.162,171.78,6.453,172.492,5.864,173.304z M19.189,171.158c-0.815-0.589-1.712-1.043-2.663-1.349l1.042-3.239
		c1.291,0.416,2.506,1.031,3.612,1.83L19.189,171.158z M10.627,169.824l-1.058-3.233c1.286-0.421,2.631-0.636,3.996-0.641
		l0.012,3.403C12.567,169.355,11.575,169.515,10.627,169.824z"/>
</g>
</svg>
