<?xml version="1.0" encoding="utf-8"?>
<!-- Generator: Adobe Illustrator 16.0.0, SVG Export Plug-In . SVG Version: 6.00 Build 0)  -->
<!DOCTYPE svg PUBLIC "-//W3C//DTD SVG 1.1//EN" "http://www.w3.org/Graphics/SVG/1.1/DTD/svg11.dtd">
<svg version="1.1" id="Layer_1" xmlns="http://www.w3.org/2000/svg" xmlns:xlink="http://www.w3.org/1999/xlink" x="0px" y="0px"
	 width="355px" height="355px" viewBox="0 0 355 355" enable-background="new 0 0 355 355" xml:space="preserve">
<g>
	<g>
		<g>
			<g>
				<g>
					<rect x="134.475" y="308.381" fill="#4CBED8" width="6.901" height="6.901"/>
					<path fill="#4CBED8" d="M143.102,317.008H132.75v-10.353h10.352V317.008z M136.2,313.557h3.451v-3.45H136.2V313.557z"/>
				</g>
				<path fill="#41464B" d="M156.904,317.008h-10.352v-10.353h10.352V317.008z M150.003,313.557h3.451v-3.45h-3.451V313.557z"/>
				<path fill="#41464B" d="M170.707,317.008h-10.352v-10.353h10.352V317.008z M163.806,313.557h3.451v-3.45h-3.451V313.557z"/>
				<path fill="#41464B" d="M184.509,317.008h-10.351v-10.353h10.351V317.008z M177.608,313.557h3.45v-3.45h-3.45V313.557z"/>
				<path fill="#41464B" d="M198.312,317.008H187.96v-10.353h10.352V317.008z M191.41,313.557h3.451v-3.45h-3.451V313.557z"/>
				<path fill="#41464B" d="M212.114,317.008h-10.352v-10.353h10.352V317.008z M205.213,313.557h3.451v-3.45h-3.451V313.557z"/>
				<path fill="#41464B" d="M225.917,317.008h-10.352v-10.353h10.352V317.008z M219.016,313.557h3.451v-3.45h-3.451V313.557z"/>
				<path fill="#41464B" d="M239.72,317.008h-10.352v-10.353h10.352V317.008z M232.818,313.557h3.451v-3.45h-3.451V313.557z"/>
				<path fill="#41464B" d="M253.522,317.008h-10.352v-10.353h10.352V317.008z M246.621,313.557h3.451v-3.45h-3.451V313.557z"/>
				<path fill="#41464B" d="M267.325,317.008h-10.352v-10.353h10.352V317.008z M260.424,313.557h3.451v-3.45h-3.451V313.557z"/>
				<path fill="#41464B" d="M281.128,317.008h-10.352v-10.353h10.352V317.008z M274.227,313.557h3.451v-3.45h-3.451V313.557z"/>
			</g>
			<g>
				<path fill="#41464B" d="M143.102,330.811H132.75v-10.353h10.352V330.811z M136.2,327.359h3.451v-3.45H136.2V327.359z"/>
				<path fill="#41464B" d="M156.904,330.811h-10.352v-10.353h10.352V330.811z M150.003,327.359h3.451v-3.45h-3.451V327.359z"/>
				<path fill="#41464B" d="M170.707,330.811h-10.352v-10.353h10.352V330.811z M163.806,327.359h3.451v-3.45h-3.451V327.359z"/>
				<path fill="#41464B" d="M184.509,330.811h-10.351v-10.353h10.351V330.811z M177.608,327.359h3.45v-3.45h-3.45V327.359z"/>
				<path fill="#41464B" d="M198.312,330.811H187.96v-10.353h10.352V330.811z M191.41,327.359h3.451v-3.45h-3.451V327.359z"/>
				<path fill="#41464B" d="M212.114,330.811h-10.352v-10.353h10.352V330.811z M205.213,327.359h3.451v-3.45h-3.451V327.359z"/>
				<path fill="#41464B" d="M225.917,330.811h-10.352v-10.353h10.352V330.811z M219.016,327.359h3.451v-3.45h-3.451V327.359z"/>
				<path fill="#41464B" d="M239.72,330.811h-10.352v-10.353h10.352V330.811z M232.818,327.359h3.451v-3.45h-3.451V327.359z"/>
				<path fill="#41464B" d="M253.522,330.811h-10.352v-10.353h10.352V330.811z M246.621,327.359h3.451v-3.45h-3.451V327.359z"/>
				<path fill="#41464B" d="M267.325,330.811h-10.352v-10.353h10.352V330.811z M260.424,327.359h3.451v-3.45h-3.451V327.359z"/>
				<path fill="#41464B" d="M281.128,330.811h-10.352v-10.353h10.352V330.811z M274.227,327.359h3.451v-3.45h-3.451V327.359z"/>
			</g>
			<g>
				<path fill="#41464B" d="M143.102,344.613H132.75v-10.353h10.352V344.613z M136.2,341.162h3.451v-3.45H136.2V341.162z"/>
				<path fill="#41464B" d="M156.904,344.613h-10.352v-10.353h10.352V344.613z M150.003,341.162h3.451v-3.45h-3.451V341.162z"/>
				<path fill="#41464B" d="M253.522,344.613h-10.352v-10.353h10.352V344.613z M246.621,341.162h3.451v-3.45h-3.451V341.162z"/>
				<path fill="#41464B" d="M267.325,344.613h-10.352v-10.353h10.352V344.613z M260.424,341.162h3.451v-3.45h-3.451V341.162z"/>
			</g>
		</g>
		<g>
			<rect x="162.08" y="335.986" fill="#AFAFAF" width="75.914" height="6.901"/>
			<path fill="#AFAFAF" d="M239.72,344.613h-79.365v-10.353h79.365V344.613z M163.806,341.162h72.464v-3.45h-72.464V341.162z"/>
		</g>
		<path fill="#41464B" d="M288.029,351.515H125.848v-51.761h162.181V351.515z M129.299,348.063h155.28v-44.858h-155.28V348.063z"/>
		<path fill="#41464B" d="M208.664,301.479h-3.451v-5.228c0-2.178,0.848-4.225,2.386-5.766c1.543-1.54,3.59-2.388,5.768-2.388
			h51.205c1.601,0,3.103-0.624,4.234-1.754c1.131-1.131,1.753-2.635,1.753-4.234c0-1.599-0.622-3.103-1.754-4.234
			c-1.131-1.131-2.633-1.753-4.233-1.753h-25.21c-1.49,0-2.892-0.581-3.945-1.635c-1.055-1.055-1.637-2.457-1.637-3.947
			s0.582-2.893,1.637-3.947c1.054-1.054,2.455-1.635,3.945-1.635h5.736c0.774,0,1.501-0.301,2.046-0.848
			c0.549-0.547,0.849-1.274,0.849-2.047s-0.3-1.5-0.849-2.047c-0.545-0.547-1.271-0.848-2.046-0.848h-23.011
			c-2.103,0-4.08-0.82-5.566-2.307c-1.484-1.482-2.305-3.46-2.305-5.564s0.82-4.083,2.307-5.567
			c1.484-1.486,3.462-2.305,5.564-2.305h19.721c0.483,0,0.938-0.188,1.28-0.529c0.341-0.343,0.529-0.798,0.529-1.279
			c0-0.483-0.188-0.939-0.531-1.282c-0.341-0.341-0.795-0.527-1.278-0.527h-10.216c-1.523,0-2.956-0.593-4.032-1.672
			c-1.078-1.078-1.671-2.511-1.671-4.032v-4.059h3.45v4.059c0,0.602,0.235,1.167,0.661,1.593c0.425,0.426,0.991,0.66,1.592,0.66
			h10.216c1.403,0,2.725,0.547,3.718,1.539c0.996,0.997,1.543,2.318,1.543,3.722c0,1.402-0.547,2.724-1.541,3.719
			c-0.995,0.993-2.316,1.54-3.72,1.54h-19.721c-1.18,0-2.291,0.461-3.125,1.295c-0.836,0.835-1.296,1.944-1.296,3.127
			c0,1.182,0.46,2.291,1.294,3.123c0.836,0.838,1.947,1.298,3.127,1.298h23.011c1.697,0,3.289,0.66,4.487,1.858
			c1.199,1.199,1.858,2.794,1.858,4.486s-0.659,3.287-1.858,4.486c-1.198,1.198-2.79,1.858-4.487,1.858h-5.736
			c-0.567,0-1.103,0.222-1.506,0.624c-0.402,0.402-0.625,0.938-0.625,1.508c0,0.568,0.223,1.104,0.625,1.508
			c0.403,0.402,0.938,0.624,1.506,0.624h25.21c2.521,0,4.892,0.979,6.675,2.763s2.763,4.154,2.763,6.675
			c0,2.522-0.981,4.893-2.763,6.674c-1.783,1.783-4.153,2.766-6.675,2.766h-51.205c-1.256,0-2.438,0.488-3.325,1.376
			s-1.377,2.07-1.377,3.326V301.479z"/>
	</g>
	<g>
		<rect x="18.419" y="289.412" fill="#FF7443" width="69.014" height="40.602"/>
		<polygon fill="#FFFFFF" points="47.505,303.453 58.35,309.712 47.505,315.968 		"/>
		<rect x="18.419" y="328.288" fill="#41464B" width="69.014" height="3.45"/>
	</g>
	<g>
		
			<rect x="39.697" y="165.802" transform="matrix(-1 -2.160867e-005 2.160867e-005 -1 351.066 357.3832)" fill="#FED65C" width="271.676" height="25.775"/>
		<path fill="#AFAFAF" d="M350.028,171.326c0-1.416-0.534-2.824-1.614-3.904c-1.08-1.075-2.493-1.618-3.905-1.618l-7.365,0.002
			v25.772h7.363c1.414-0.002,2.825-0.539,3.907-1.621c1.078-1.077,1.612-2.49,1.614-3.905V171.326z"/>
		<g>
			<polygon fill="#41464B" points="39.097,193.191 0,178.694 39.097,164.187 40.297,167.422 9.922,178.692 40.297,189.957 			"/>
			<rect x="14.173" y="174.635" fill="#41464B" width="3.451" height="8.114"/>
			<path fill="#41464B" d="M311.373,193.306L39.697,193.3c-0.953,0-1.725-0.774-1.725-1.726v-25.77c0-0.457,0.182-0.896,0.505-1.22
				c0.324-0.323,0.763-0.505,1.22-0.505l271.676,0.001c0.953,0,1.726,0.773,1.726,1.725v25.775c0,0.456-0.181,0.896-0.505,1.219
				C312.271,193.122,311.832,193.306,311.373,193.306z M41.422,189.849l268.226,0.006v-22.324L41.422,167.53V189.849z"/>
			<path fill="#41464B" d="M311.371,186.277L311.371,186.277L39.699,186.27c-0.953,0-1.725-0.772-1.725-1.726l-0.002-11.711
				c0-0.458,0.182-0.897,0.505-1.221c0.324-0.323,0.763-0.505,1.22-0.505l271.676,0.004c0.459,0,0.897,0.182,1.221,0.505
				c0.324,0.324,0.505,0.763,0.505,1.221l-0.002,11.715C313.097,185.505,312.324,186.277,311.371,186.277z M41.424,182.818
				l268.222,0.008l0.002-8.265l-268.226-0.004L41.424,182.818z"/>
			<path fill="#41464B" d="M309.648,193.306v-29.227l29.221,0.002v29.223L309.648,193.306z M313.099,167.53v22.325l22.319-0.002
				v-22.321L313.099,167.53z"/>
			<path fill="#41464B" d="M344.509,193.304h-9.091v-29.223l9.091-0.002c1.93,0,3.749,0.753,5.122,2.12
				c1.369,1.369,2.122,3.188,2.122,5.127v14.726c-0.002,1.942-0.755,3.763-2.12,5.126
				C348.266,192.545,346.446,193.3,344.509,193.304z M338.869,189.853h5.636c1.017-0.002,1.972-0.398,2.69-1.116
				c0.713-0.713,1.107-1.666,1.107-2.688v-14.722c0-1.016-0.393-1.969-1.107-2.685c-0.72-0.716-1.675-1.112-2.687-1.112l-5.64,0.002
				V189.853z"/>
			<rect x="322.531" y="165.805" fill="#41464B" width="3.451" height="25.769"/>
		</g>
	</g>

	<path fill="#41464B" d="M87.108,241.774l-2.852-1.942c16.547-24.312,42.074-55.26,70.035-84.913
		C211.604,94.148,280.313,40.175,296.1,55.055l-2.366,2.511c-10.967-10.333-68.602,27.267-136.931,99.72
		C128.96,186.813,103.559,217.608,87.108,241.774z"/>
	<g>
		<g>
			<defs>
				<circle id="SVGID_1_" cx="177.494" cy="178.692" r="98.591"/>
			</defs>
			<use xlink:href="#SVGID_1_"  overflow="visible" fill="#4CBED8"/>
			<clipPath id="SVGID_2_">
				<use xlink:href="#SVGID_1_"  overflow="visible"/>
			</clipPath>
			<path clip-path="url(#SVGID_2_)" fill="#FFFFFF" d="M202.125,152.457l2.994,1.403l3.44-3.634l8.157-0.445l1.976,1.402
				l0.701,4.715l8.282,2.04l4.461-3.441l2.548,2.04l6.818,1.721l5.925-2.868l-1.592-5.799l-5.989,1.147l-4.621-6.371l-3.535,0.86
				l2.103,4.491l-4.205,1.625l-4.589-11.182l-2.314,0.22l0.339,3.583l-1.941,0.593l-6.788-3.823l-7.55,6.595l-7.456,1.625
				l-4.109-1.816l2.388-7.168l6.691,2.197l1.816-2.771l0.098-5.066l6.21-3.09l3.824-2.072l2.548,1.435l6.374-3.695l5.988-0.128
				l-1.019-7.773l-4.462,1.02l-5.798,3.887l-5.925-0.701l-1.274-4.461l6.371-2.166l8.155-8.029l11.981,1.275l4.588,5.67l11.66-5.161
				l11.278,2.676l8.22-5.161l4.016-4.015l18.731-1.529v5.544l19.499-2.293l3.822,4.396l7.266-4.396l30.776,5.733h12.998l1.722,7.455
				l-7.264,2.678l4.203,6.308l-1.147,2.293l-8.409-3.441v-7.838h-6.308l-10.514,3.059l-2.296,6.5l11.853,6.118l-2.484,7.837
				l-3.632,4.397l5.161,3.249l-2.294,4.206l-8.22-8.41l-2.675,5.352l6.499,9.94l-7.075,11.47l-10.704-0.573l8.027,9.939l-2.293,4.97
				l-4.013-3.249l-3.824,2.486l7.837,8.983l-5.352,1.147l-6.884-4.587l-0.955-15.102l-8.282-6.882l-4.461-1.273l-1.656,6.244
				l-5.384,3.92l-0.955,8.218l-4.495-1.91l-2.961-14.242l-4.111-0.575l-4.97-6.977l-5.544,2.008l-2.578-2.676l-13.192-4.684
				l2.869,7.168l6.021-0.668l4.777,4.778l-7.264,6.595l-10.133,4.015l-1.049-3.441l-3.73-4.396l-0.476-3.251l-7.169-7.934
				l-3.632,0.765l7.167,13.287l8.889,9.461l5.544-1.338l3.345,1.242l-15.004,20.326l0.765,11.728l-5.736,7.009v5.354l-11.724,13.76
				l-8.794-3.185l-7.52-18.732l3.187-8.159l-6.882-12.741l2.293-7.138l-6.626-3.568l-16.312,2.806l-8.792-9.178l1.399-4.714
				l-1.399-7.647l8.027-9.811l5.607-7.902L202.125,152.457z M148.601,107.789l-7.392,0.893l-2.167,1.912l-9.43,1.911l-12.106-6.882
				l-11.725,2.167l-15.931,0.893l-10.067,6.627l-8.157,5.225l5.48,2.804l14.911-4.079l3.503,9.431l-6.499,13.19v13.955l3.441,5.734
				l2.868-4.205l4.779,9.557v7.264l12.426,3.441l7.073,4.778l8.985,7.839l2.293,3.63l-3.633,6.42l2.678,12.507l11.277,7.264
				l1.912,6.309l-3.12,15.975l9.353,23.704l4.206-1.529l2.942-3.358l0.191-9.368l2.867-8.027l6.692-1.658l2.101-11.723l2.676-3.058
				l4.206,1.336l2.295-4.205l2.164-11.149l3.824-5.225l-1.021-3.951l-12.871-5.99l-3.822,2.148l-1.529-2.53l0.126-3.187
				l-4.077-4.333h-5.354l-1.273-3.951l-11.216-4.714l-9.303,4.204l-6.882-0.763l-0.637-5.736l-1.783-3.186l-3.568,0.509l1.656-5.861
				l-2.549-2.039l-4.971,5.606l-5.097-4.461l7.392-11.214l3.823,1.656l5.352-2.167l3.919,2.389l1.052,4.685l1.912-0.861
				l-0.574-7.455l4.969-2.676l4.78-6.021l9.653-8.219l3.728,0.956l3.95-3.059l-4.587-2.932l0.892-1.402h8.157l5.097-5.989
				l-10.323-9.558l-7.519,5.225l-5.098,9.176l-3.822-1.402l1.656-3.568l-5.99-7.773l8.793-2.932l7.52-4.46L148.601,107.789z
				 M129.167,104.03l0.669,4.206l8.889-1.051l4.397-3.154l-6.117-2.198L129.167,104.03z M157.937,103.934l-3.823,4.302l4.684,1.433
				l2.484-1.433l2.867,3.25l-3.154,2.486l1.529,4.396h4.685l0.573-4.875l2.294,1.531l1.338-1.721l-5.448-5.513l-5.353-1.942
				L157.937,103.934z M177.531,99.825l2.006,4.109l5.831,2.772v3.441l-4.876,2.485l0.382,6.786l5.162,3.538l4.492-8.029
				l12.903-3.537l2.452-9.08l-0.956-5.543l-14.112-1.434l-7.296,3.346l-4.076-0.096L177.531,99.825z M157.649,98.742l5.734,4.078
				l9.176-3.187l3.951-2.803l-11.354-5.499l-4.114,3.25L157.649,98.742z"/>
		</g>
		<path fill="#41464B" d="M177.495,279.008c-55.314,0-100.316-45.003-100.316-100.315c0-55.315,45.001-100.317,100.316-100.317
			c55.314,0,100.316,45.002,100.316,100.317C277.811,234.005,232.809,279.008,177.495,279.008z M177.495,81.826
			c-53.411,0-96.865,43.454-96.865,96.866c0,53.41,43.454,96.865,96.865,96.865c53.412,0,96.865-43.455,96.865-96.865
			C274.359,125.28,230.906,81.826,177.495,81.826z"/>
	</g>
	
	<path fill="#41464B" d="M70.355,304.875c-3.032,0-5.579-0.778-7.455-2.548l-1.577-1.486l0.232-0.154
		c-3.39-5.369-1.599-15.424,5.345-29.953l3.114,1.487c-6.812,14.253-8.496,24.052-4.742,27.596l0.13,0.123
		c5.718,5.01,23.776-2.496,48.418-20.142c26.234-18.786,57.619-47.093,88.373-79.707c68.329-72.454,102.493-132.193,91.533-142.531
		l2.368-2.51c15.776,14.879-34.077,86.635-91.391,147.41c-30.902,32.77-62.464,61.229-88.874,80.144
		C100.648,293.473,81.959,304.875,70.355,304.875z"/>
	<g>
		<circle fill="#FFFFFF" cx="301.504" cy="220.135" r="12.324"/>
		<path fill="#41464B" d="M301.517,234.186c-0.545,0-1.1-0.032-1.646-0.096c-7.695-0.901-13.222-7.896-12.32-15.588
			c0.83-7.079,6.82-12.418,13.938-12.418c0.549,0,1.104,0.032,1.648,0.096c3.728,0.438,7.063,2.3,9.39,5.243
			c2.327,2.944,3.369,6.617,2.933,10.345C314.63,228.846,308.635,234.186,301.517,234.186z M301.487,209.534
			c-5.366,0-9.884,4.028-10.51,9.368c-0.68,5.804,3.489,11.08,9.293,11.76c0.414,0.048,0.834,0.073,1.246,0.073
			c5.368,0,9.89-4.028,10.514-9.37c0.329-2.81-0.457-5.582-2.211-7.803c-1.756-2.222-4.272-3.626-7.084-3.955
			C302.321,209.56,301.901,209.534,301.487,209.534z"/>
		<path fill="#AFAFAF" d="M306.891,220.765c-0.349,2.973-3.044,5.104-6.018,4.756c-2.971-0.347-5.103-3.044-4.754-6.016
			c0.347-2.973,3.044-5.103,6.016-4.754C305.105,215.098,307.237,217.793,306.891,220.765z"/>
	</g>
	<g>
		<path fill="#41464B" d="M74.162,274.613c-7.147,0-13.143-5.364-13.945-12.476c-0.421-3.728,0.636-7.398,2.975-10.333
			c2.34-2.935,5.682-4.781,9.411-5.203c0.528-0.06,1.063-0.088,1.591-0.088c7.148,0,13.143,5.362,13.944,12.474
			c0.421,3.729-0.635,7.398-2.975,10.333c-2.339,2.935-5.681,4.783-9.41,5.203C75.225,274.583,74.69,274.613,74.162,274.613z
			 M74.194,249.964c-0.399,0-0.805,0.023-1.204,0.067c-2.813,0.318-5.334,1.71-7.099,3.925c-1.765,2.214-2.562,4.981-2.244,7.795
			c0.604,5.364,5.125,9.412,10.516,9.412c0.399,0,0.804-0.023,1.204-0.069c2.813-0.315,5.334-1.71,7.099-3.925
			c1.765-2.214,2.562-4.981,2.245-7.794C84.104,254.01,79.584,249.964,74.194,249.964z"/>
		<path fill="#FF7443" d="M79.566,259.954c0.335,2.976-1.805,5.661-4.781,5.996c-2.975,0.337-5.66-1.806-5.996-4.779
			c-0.335-2.973,1.805-5.661,4.781-5.996C76.545,254.84,79.23,256.981,79.566,259.954z"/>
	</g>
	<g>
		<g>
			<path fill="#AFAFAF" d="M60.376,45.74c0,4.016,3.282,7.297,7.294,7.297h58.365c4.016,0,7.298-3.281,7.298-7.297V23.855
				c0-4.012-3.282-7.297-7.298-7.297H67.67c-4.012,0-7.294,3.285-7.294,7.297V45.74z"/>
			<polygon fill="#AFAFAF" points="121.017,64.328 121.017,53.038 109.725,53.038 			"/>
		</g>
		<g>
			<path fill="#FED65C" d="M96.853,61.203c0,4.012-3.281,7.294-7.294,7.294H31.192c-4.014,0-7.295-3.282-7.295-7.294V39.315
				c0-4.013,3.281-7.294,7.295-7.294h58.366c4.013,0,7.294,3.281,7.294,7.294V61.203z"/>
			<polygon fill="#FED65C" points="36.211,79.79 36.211,68.497 47.505,68.497 			"/>
		</g>
		<path fill="#FFFFFF" d="M89.559,32.021H60.376v13.72c0,4.016,3.282,7.297,7.294,7.297h29.183V39.315
			C96.853,35.302,93.571,32.021,89.559,32.021z"/>
		<g>
			<rect x="69.494" y="40.802" fill="#41464B" width="3.651" height="3.451"/>
			<rect x="76.79" y="40.802" fill="#41464B" width="3.649" height="3.451"/>
			<rect x="84.085" y="40.802" fill="#41464B" width="3.65" height="3.451"/>
		</g>
	</g>
	<g>
		<path fill="#41464B" d="M317.521,146.582c-4.718,0-9.154-1.838-12.497-5.174c-3.341-3.343-5.18-7.783-5.18-12.502v-25.663
			c0-4.72,1.839-9.158,5.18-12.497c3.341-3.338,7.779-5.176,12.497-5.176s9.156,1.838,12.499,5.175
			c3.341,3.338,5.181,7.777,5.181,12.499v25.663c0,4.722-1.84,9.161-5.179,12.501C326.678,144.744,322.239,146.582,317.521,146.582z
			 M317.521,89.021c-3.797,0-7.369,1.479-10.059,4.166c-2.687,2.688-4.167,6.259-4.167,10.057v25.663
			c0,3.798,1.48,7.372,4.169,10.062c2.688,2.685,6.262,4.164,10.057,4.164c3.798,0,7.369-1.479,10.062-4.166
			c2.688-2.687,4.167-6.26,4.167-10.06v-25.663c0-3.799-1.479-7.371-4.167-10.057C324.891,90.501,321.319,89.021,317.521,89.021z"/>
		<path fill="#41464B" d="M317.521,108.806c-3.065,0-5.559-2.495-5.559-5.562c0-3.069,2.493-5.567,5.559-5.567
			c3.067,0,5.563,2.498,5.563,5.567C323.085,106.311,320.589,108.806,317.521,108.806z M317.521,101.127
			c-1.163,0-2.108,0.949-2.108,2.116c0,1.164,0.945,2.111,2.108,2.111c1.165,0,2.112-0.947,2.112-2.111
			C319.634,102.077,318.687,101.127,317.521,101.127z"/>
	</g>
	<g>
		<path fill="#41464B" d="M186.728,46.372c-11.824,0-21.443-9.619-21.443-21.443s9.619-21.444,21.443-21.444
			c11.825,0,21.443,9.62,21.443,21.444S198.553,46.372,186.728,46.372z M186.728,6.936c-9.921,0-17.992,8.072-17.992,17.993
			c0,9.921,8.071,17.993,17.992,17.993c9.923,0,17.993-8.072,17.993-17.993C204.721,15.007,196.65,6.936,186.728,6.936z"/>
		<path fill="#41464B" d="M186.728,46.372c-5.447,0-8.3-10.787-8.3-21.443s2.853-21.444,8.3-21.444
			c5.445,0,8.296,10.788,8.296,21.444S192.173,46.372,186.728,46.372z M186.728,6.936c-1.708,0-4.849,6.831-4.849,17.993
			c0,11.162,3.141,17.993,4.849,17.993s4.845-6.831,4.845-17.993C191.572,13.767,188.436,6.936,186.728,6.936z"/>
		<path fill="#41464B" d="M186.728,33.227c-10.656,0-21.443-2.851-21.443-8.298s10.787-8.297,21.443-8.297
			c10.656,0,21.443,2.85,21.443,8.297S197.384,33.227,186.728,33.227z M186.728,20.082c-11.161,0-17.992,3.138-17.992,4.847
			c0,1.709,6.831,4.848,17.992,4.848c11.163,0,17.993-3.139,17.993-4.848C204.721,23.22,197.891,20.082,186.728,20.082z"/>
	</g>
	<g>
		<path fill="#41464B" d="M255.28,45.403L239.666,8.151l37.245,15.624l-15.622,6.004L255.28,45.403z M246.109,14.596l9.032,21.551
			l3.477-9.039l9.038-3.474L246.109,14.596z"/>
		
			<rect x="258.029" y="31.365" transform="matrix(0.7073 0.707 -0.707 0.7073 100.8542 -177.3752)" fill="#41464B" width="13.145" height="3.451"/>
	</g>
	<g>
		<g>
			<path fill="#FF7443" d="M21.928,101.298c-9.106,0-16.498,7.392-16.498,16.494c0,3.799,1.384,7.203,3.417,10.056
				c13.08,18.327,13.08,18.327,13.08,18.327s0,0,13.081-18.329c2.034-2.853,3.412-6.265,3.412-10.054
				C38.42,108.689,31.042,101.298,21.928,101.298z"/>
			<path fill="#FFFFFF" d="M29.379,117.792c0,4.125-3.33,7.457-7.452,7.457c-4.116,0-7.457-3.333-7.457-7.457
				c0-4.111,3.341-7.453,7.457-7.453C26.049,110.338,29.379,113.68,29.379,117.792z"/>
			<path fill="#41464B" d="M21.928,126.974c-5.063,0-9.183-4.119-9.183-9.182c0-5.061,4.119-9.178,9.183-9.178
				c5.06,0,9.177,4.117,9.177,9.178C31.105,122.854,26.988,126.974,21.928,126.974z M21.928,112.064
				c-3.16,0-5.732,2.569-5.732,5.728c0,3.161,2.572,5.731,5.732,5.731c3.158,0,5.727-2.571,5.727-5.731
				C27.654,114.633,25.085,112.064,21.928,112.064z"/>
		</g>
		<g>
			<rect x="13.299" y="151.35" fill="#41464B" width="3.451" height="3.451"/>
			<rect x="20.2" y="151.35" fill="#41464B" width="3.451" height="3.451"/>
			<rect x="27.102" y="151.35" fill="#41464B" width="3.451" height="3.451"/>
		</g>
	</g>
	<g>
		<circle fill="#FF7443" cx="223.339" cy="43.932" r="7.66"/>
		<circle fill="#AFAFAF" cx="197.642" cy="62.532" r="3.963"/>
		<path fill="#41464B" d="M13.309,250.025l-0.002-3.45c1.001,0,1.986-0.156,2.929-0.462l1.065,3.283
			C16.015,249.813,14.672,250.025,13.309,250.025z M9.316,249.402c-1.293-0.418-2.506-1.034-3.606-1.834l2.027-2.792
			c0.806,0.584,1.693,1.036,2.64,1.343L9.316,249.402z M20.904,247.559l-2.03-2.792c0.807-0.585,1.514-1.292,2.099-2.095
			l2.791,2.031C22.964,245.799,22.002,246.76,20.904,247.559z M2.847,244.715c-0.803-1.1-1.423-2.311-1.844-3.599l3.279-1.071
			c0.309,0.944,0.764,1.83,1.351,2.637L2.847,244.715z M25.604,241.097l-3.283-1.063c0.306-0.944,0.461-1.93,0.461-2.929l3.45-0.047
			v0.047C26.233,238.467,26.021,239.811,25.604,241.097z M0.367,237.12v-0.015c0-1.36,0.21-2.698,0.625-3.979l3.283,1.061
			c-0.303,0.938-0.457,1.92-0.457,2.918L0.367,237.12z M22.311,234.14c-0.31-0.941-0.766-1.827-1.357-2.635l2.785-2.039
			c0.805,1.1,1.428,2.312,1.85,3.598L22.311,234.14z M5.617,231.546l-2.794-2.024c0.797-1.099,1.756-2.062,2.852-2.863l2.036,2.785
			C6.906,230.032,6.202,230.739,5.617,231.546z M18.848,229.414c-0.809-0.583-1.699-1.036-2.644-1.338l1.057-3.285
			c1.29,0.414,2.504,1.03,3.609,1.827L18.848,229.414z M10.347,228.089l-1.075-3.279c1.284-0.419,2.627-0.635,3.992-0.639l0.01,3.45
			C12.271,227.625,11.287,227.781,10.347,228.089z"/>
		<path fill="#41464B" d="M313.715,321.272l-0.012-3.45c0.846-0.004,1.676-0.228,2.399-0.649l1.733,2.985
			C316.588,320.882,315.163,321.268,313.715,321.272z M309.585,320.181c-1.252-0.718-2.3-1.756-3.029-3.002l2.977-1.744
			c0.426,0.728,1.038,1.334,1.77,1.754L309.585,320.181z M320.848,317.139l-2.987-1.728c0.42-0.726,0.642-1.556,0.642-2.399
			l3.451-0.078v0.078C321.953,314.46,321.571,315.887,320.848,317.139z M305.425,313.049v-0.037c0-1.433,0.376-2.846,1.083-4.086
			l2.996,1.71c-0.41,0.721-0.628,1.543-0.628,2.376L305.425,313.049z M317.834,310.561c-0.432-0.724-1.046-1.326-1.779-1.74
			l1.698-3.004c1.258,0.71,2.313,1.744,3.048,2.984L317.834,310.561z M311.254,308.86l-1.754-2.971
			c1.244-0.734,2.669-1.129,4.117-1.143l0.028,3.451C312.804,308.206,311.977,308.435,311.254,308.86z"/>
		<path fill="#41464B" d="M343.371,226.341c-6.406,0-11.621-5.219-11.621-11.635c0-6.408,5.215-11.622,11.621-11.622
			c6.412,0,11.629,5.214,11.629,11.622C355,221.122,349.783,226.341,343.371,226.341z M343.371,206.534
			c-4.504,0-8.17,3.666-8.17,8.172c0,4.514,3.666,8.185,8.17,8.185c4.51,0,8.178-3.671,8.178-8.185
			C351.549,210.2,347.881,206.534,343.371,206.534z"/>
		<path fill="#AFAFAF" d="M49.153,225.898c0,4.033-3.264,7.292-7.29,7.292c-4.034,0-7.3-3.259-7.3-7.292
			c0-4.023,3.266-7.295,7.3-7.295C45.89,218.604,49.153,221.875,49.153,225.898z"/>
		<path fill="#FF7443" d="M347.544,240.802c0,2.304-1.864,4.171-4.169,4.171c-2.301,0-4.167-1.867-4.167-4.171
			c0-2.301,1.866-4.167,4.167-4.167C345.68,236.635,347.544,238.501,347.544,240.802z"/>
	</g>
</g>
</svg>
